<svg width="59" height="75" viewBox="0 0 59 75" fill="none" xmlns="http://www.w3.org/2000/svg">
<g opacity="0.3">
<path d="M54.5874 22.6722C59.6738 29.1645 58.3593 41.7033 57.5363 45.2123C56.8963 47.9098 56.5533 50.5958 56.3476 53.3619C55.8333 60.1399 52.7814 65.5349 46.8035 69.0325C45.672 69.6954 44.0946 69.7412 43.1573 70.5641C42.1286 71.4557 43.3288 73.1359 42.643 74.3589C42.5973 74.4389 42.5401 74.5189 42.3572 74.759C40.8142 74.5418 39.8312 73.6617 39.2597 72.3815C38.7339 71.1928 37.8652 70.7356 36.6308 70.5298C33.8761 70.0841 31.2587 69.1468 28.9384 67.6037C27.2582 66.4836 25.6694 65.9464 23.6234 66.4379C21.7603 66.8837 19.8401 66.5522 17.9541 66.1636C17.2683 66.0264 16.5482 65.4549 15.6909 66.175C18.3999 69.9012 12.0448 67.5466 9.43871 63.0432C8.51288 61.4544 7.0727 60.2999 5.76967 59.0541C-1.71701 51.8531 -1.28267 44.115 3.44937 35.954C5.02672 33.2222 5.76967 30.8333 5.71252 27.5872C5.51821 15.5399 10.3074 6.65876 20.2973 1.83528C22.1146 0.955168 24.012 0.337946 26.0123 0.0979148C30.4471 -0.427867 34.059 1.18377 36.9508 4.45276C39.054 6.83021 40.5856 9.57342 41.7172 12.5338C42.1515 13.6654 42.7344 14.4426 44.0489 14.7169C44.0489 14.7169 49.4782 16.1914 54.5645 22.6837L54.5874 22.6722ZM28.8012 57.9682C29.3041 57.0767 28.9955 56.4252 28.8698 55.7965C28.1726 52.2875 28.1383 48.7899 28.9269 45.2923C29.6127 42.2748 31.2129 39.9202 33.7847 38.1485C36.2193 36.4797 38.8139 35.5196 41.8086 35.6568C43.6831 35.7368 43.7631 35.6339 43.6031 33.7708C43.3974 31.3934 43.0202 29.0388 42.803 26.6728C42.6887 25.3926 42.0029 24.8668 40.837 24.6382C30.6186 22.5694 21.5203 24.4668 14.0222 32.1135C13.4278 32.7193 12.7077 33.325 12.6963 34.2509C12.6506 38.1942 12.8906 42.0919 15.2223 45.4866C17.8969 49.3614 21.3488 52.5275 24.7893 55.6936C25.898 56.7223 27.2124 57.5453 28.8012 57.9682ZM8.60432 28.7873C9.72447 28.4787 9.83877 27.4729 10.0788 26.5699C10.6732 24.3639 11.4618 22.2265 12.4677 20.1691C14.7537 15.517 18.4456 12.6595 23.4291 11.3565C27.6125 10.2707 31.7159 10.5678 35.8193 11.7337C36.5508 11.9394 37.3052 12.6367 38.2081 11.9394C37.5338 10.0878 36.4708 8.53329 35.2249 7.08167C31.8073 3.10402 28.1611 2.1096 23.2119 3.91555C19.3028 5.3443 15.8967 7.60745 13.3592 10.945C9.5873 15.9171 8.19284 21.655 8.13569 27.7929C8.13569 28.1701 8.2157 28.5359 8.59289 28.7759L8.60432 28.7873ZM34.8591 42.1147C33.7047 43.1092 33.0189 44.3207 32.6417 45.7381C31.4644 50.1158 32.1159 54.4249 33.1675 58.6997C33.4532 59.8885 33.979 59.9685 35.0077 59.1112C40.7113 54.3563 43.1916 48.0927 43.5803 40.8232C43.626 39.8516 43.2488 39.4744 42.3115 39.3715C39.3397 39.0401 36.9165 40.1259 34.8591 42.1147ZM24.2521 64.369C23.4634 63.4889 23.1205 63.0432 22.7204 62.666C17.0283 57.2367 12.8449 50.8702 10.5931 43.2806C10.3645 42.5148 10.2731 41.5432 9.17582 41.3146C9.02723 41.5661 8.82149 41.7833 8.75291 42.0462C6.86695 49.5328 9.21011 56.128 13.1192 62.3688C13.3135 62.666 13.6564 62.9403 13.9879 63.0774C17.0968 64.3462 20.2858 65.0663 24.2521 64.3805V64.369ZM54.3131 42.5834C54.9531 39.0172 55.0789 36.114 54.2559 33.2107C53.2501 29.6331 49.7068 26.9699 45.6262 26.8214C45.7863 28.4444 46.0949 30.0446 46.072 31.6448C46.0149 34.5595 46.5292 36.8569 49.7182 38.1028C51.4898 38.8 52.5757 40.7546 54.3131 42.5719V42.5834ZM49.0324 53.9791C52.2671 50.9273 52.9529 49.7043 52.3471 47.6812C51.4098 44.5265 49.6267 42.0119 46.312 40.3317C45.8434 44.115 45.329 47.4754 43.9689 51.0645C46.6206 50.5958 48.2437 51.4645 49.0324 53.9677V53.9791ZM6.27259 57.3281C5.73538 55.0193 5.28961 53.2019 4.87813 51.3731C4.46665 49.5214 4.18089 47.6469 4.28376 45.7381C4.38663 43.7378 4.88956 41.8061 5.26675 39.8516C5.59822 38.1142 6.86695 36.5826 6.55834 34.4681C0.340399 42.0233 -0.333973 51.5331 6.27259 57.3281ZM41.1228 20.2262C40.6427 17.2773 40.0141 16.66 37.2594 16.5C31.7387 16.1914 26.7667 17.8831 22.0803 20.6491C21.566 20.9463 20.9831 21.2092 20.7087 22.1808C27.4753 19.5518 34.2076 18.9689 41.1228 20.2262ZM52.2785 56.9166C52.1185 56.8023 51.9699 56.6881 51.8099 56.5623C50.3011 57.671 48.7009 58.6997 47.295 59.9342C45.5805 61.4201 44.026 63.0889 42.403 64.6777C41.7972 65.2834 41.6371 66.0607 42.0715 66.7579C42.5515 67.5123 43.2945 67.0208 43.8546 66.7808C48.3351 64.872 50.8955 61.3744 52.2899 56.9166H52.2785ZM15.4509 22.8208C19.9772 19.2547 24.5835 16.3629 30.3786 14.5226C23.3719 13.4368 17.0397 17.0372 15.4509 22.8208ZM20.3201 54.9964C22.0575 58.1054 24.6178 60.4257 27.281 62.6774C27.8411 63.1575 28.4469 63.226 29.1212 62.9517C29.567 62.7688 30.0814 62.6317 30.1842 62.1287C30.3214 61.5344 29.7613 61.3401 29.3498 61.1686C25.9208 59.7284 22.9605 57.6139 20.3201 54.985V54.9964ZM35.6935 64.1519C36.1393 64.2205 36.7337 64.8262 37.2366 63.9576C37.3509 63.7632 37.3166 63.3175 37.1794 63.2032C36.6536 62.746 35.9564 62.6774 35.3963 63.0546C35.0191 63.306 35.3506 63.7061 35.6935 64.1519ZM44.7575 56.0937C43.5802 56.8024 42.9516 57.351 42.6201 58.4254C44.106 58.3568 44.4947 57.5796 44.7575 56.0937ZM45.9691 21.5292C45.912 21.3349 45.912 21.0949 45.8091 21.0263C45.4548 20.7863 44.9976 19.849 44.6775 20.672C44.3918 21.4035 45.2376 21.6435 45.9806 21.5407L45.9691 21.5292ZM32.0016 65.3863C32.1731 65.1006 32.0016 64.8834 31.8302 64.6777C31.5787 64.4033 31.3044 64.4948 31.0986 64.7005C30.87 64.9405 30.9843 65.192 31.2358 65.3749C31.4873 65.5578 31.7502 65.5692 32.0016 65.3863Z" fill="#E8E8E8"/>
</g>
</svg>
