<svg width="117" height="181" viewBox="0 0 117 181" fill="none" xmlns="http://www.w3.org/2000/svg">
<path d="M71.4663 115.681C74.4245 116.065 76.7271 115.51 78.9396 114.074C82.1846 111.968 84.6265 109.113 86.7489 106.028C90.166 101.042 93.3126 95.8692 96.5904 90.7856C100.376 84.9105 104.203 79.0518 107.956 73.1522C109.988 69.9617 111.742 66.7305 111.234 62.6261C110.906 60.0149 111.234 57.3059 111.398 54.6458C111.84 47.6447 112.193 40.6354 112.955 33.6669C113.168 31.7004 112.455 31.2679 111.062 30.7457C102.245 27.4246 94.5172 22.1208 86.5768 17.233C81.0374 13.8222 75.8011 9.92999 70.4748 6.1928C69.2046 5.29522 68.1311 4.12836 66.9266 3.11655C66.5496 2.79831 66.0662 2.61064 65.6237 2.36584C65.5007 2.83911 65.4434 3.33686 65.2467 3.77749C65.05 4.23444 64.7796 4.96883 64.46 5.00962C61.2396 5.44209 58.8469 7.44941 56.3639 9.21193C52.8813 11.6844 49.6281 14.4668 46.1045 16.8658C39.4261 21.419 33.3294 26.6168 27.6589 32.345C23.0864 36.9635 18.5549 41.6227 13.966 46.233C11.8026 48.4117 9.46723 50.4353 7.37765 52.6874C4.91113 55.3312 2.4528 58.0158 0.977803 61.4021C0.363221 62.8219 -0.431638 64.2091 0.281277 65.7921C1.79725 69.1866 3.88683 72.1486 6.99251 74.3272C11.5486 77.5177 16.0801 80.7409 20.6035 83.9721C24.3975 86.6812 28.1096 89.5127 31.9691 92.132C38.1641 96.3424 44.4656 100.398 50.6934 104.568C55.2659 107.627 59.6007 111.022 64.6895 113.315C67.0331 114.367 69.0243 116.179 71.4581 115.681H71.4663Z" fill="white"/>
<path d="M74.9418 179.637C70.6725 179.637 66.395 179.67 62.1257 179.621C60.0935 179.596 58.0695 179.408 56.0373 179.351C53.9067 179.294 51.7844 179.302 49.6538 179.27C48.6623 179.253 47.6544 179.327 46.6792 179.18C42.9016 178.625 39.1567 178.666 35.4201 179.515C31.0443 180.51 26.5783 180.339 22.2516 179.539C20.7275 179.253 19.1459 178.927 17.589 178.609C14.008 177.874 13.3689 173.264 14.2948 170.408C16.2205 164.476 19.9408 159.662 23.8577 154.986C26.8815 151.379 30.1265 147.944 33.1174 144.313C35.3791 141.563 38.4192 140.739 41.6888 140.543C44.2619 140.388 46.8595 140.511 49.4326 140.682C59.8804 141.367 70.2874 140.209 80.7107 139.98C82.7265 139.939 84.7587 140.29 86.7746 140.535C88.3479 140.723 89.9376 140.927 91.4618 141.318C92.5271 141.596 93.5186 142.183 94.5183 142.681C94.8215 142.828 95.01 143.212 95.3132 143.342C97.9845 144.444 98.8286 146.802 99.3858 149.299C99.5825 150.18 99.607 151.233 99.2957 152.057C98.0173 155.427 96.739 158.821 95.1493 162.053C93.2236 165.961 90.9537 169.69 88.8887 173.525C88.0119 175.149 86.455 176.291 85.9469 178.25C85.7748 178.903 83.9393 179.408 82.833 179.482C80.2108 179.661 77.5722 179.539 74.9418 179.539C74.9418 179.563 74.9418 179.596 74.9418 179.621V179.637Z" fill="black"/>
<path d="M75.4662 113.681C73.0243 114.179 71.0331 112.367 68.6976 111.315C63.6007 109.03 59.2741 105.636 54.7016 102.568C48.4738 98.3979 42.1723 94.3424 35.9773 90.132C32.1177 87.5127 28.4056 84.6812 24.6116 81.9721C20.0883 78.7409 15.5486 75.5177 11.0007 72.3272C7.89497 70.1486 5.80539 67.1866 4.28943 63.7921C3.57651 62.2009 4.37137 60.8137 4.98595 59.4021C6.46095 56.0158 8.91928 53.3312 11.3858 50.6874C13.4754 48.4435 15.8108 46.4198 17.9741 44.233C22.5548 39.6227 27.0945 34.9635 31.667 30.345C37.3376 24.6168 43.4342 19.419 50.1127 14.8658C53.6363 12.4668 56.8895 9.67619 60.3721 7.21193C62.855 5.44941 65.256 3.45025 68.4682 3.00962C68.7878 2.96883 69.0582 2.22628 69.2549 1.77749C69.4433 1.33686 69.5089 0.839114 69.6318 0.365845C70.0661 0.610639 70.5578 0.798315 70.9347 1.11655C72.1311 2.1202 73.2046 3.29522 74.4829 4.1928C79.8093 7.92999 85.0455 11.8222 90.585 15.233C98.5254 20.1208 106.253 25.4246 115.07 28.7457C116.463 29.2679 117.176 29.7004 116.963 31.6669C116.201 38.6354 115.848 45.6447 115.406 52.6458C115.234 55.3059 114.914 58.0068 115.242 60.6261C115.75 64.7223 113.996 67.9536 111.964 71.1522C108.211 77.0518 104.384 82.9024 100.599 88.7856C97.3208 93.8692 94.1741 99.0425 90.757 104.028C88.6429 107.121 86.1927 109.977 82.9478 112.074C80.7353 113.51 78.4326 114.065 75.4744 113.681H75.4662ZM98.5581 75.2974C98.1648 75.1832 97.6895 75.0689 97.2306 74.9139C92.2484 73.2411 87.1269 71.8621 82.3168 69.7814C77.7771 67.823 73.5569 65.1303 69.2057 62.7558C62.0274 58.8309 55.4718 54.0085 49.2687 48.7209C45.4255 45.4407 41.7871 41.9156 37.903 38.6843C35.8052 36.9381 35.3873 34.89 37.3212 32.899C38.0423 32.1565 38.9191 31.5608 39.7221 30.908C40.5252 30.2471 41.4102 29.6677 42.1313 28.9252C45.4582 25.5144 48.736 22.0628 52.022 18.6193C53.3904 17.1832 54.7343 15.7145 56.0864 14.262C55.6357 14.1804 55.3735 14.2946 55.1359 14.4497C51.727 16.6692 48.3263 18.9213 44.8928 21.0918C44.1881 21.5324 43.0982 21.4834 42.5492 22.0302C39.1649 25.3757 35.879 28.8191 32.5766 32.2462C28.4138 36.5709 24.2347 40.8793 20.1293 45.2448C16.8351 48.7454 13.5573 52.2623 10.4352 55.9097C9.36178 57.1663 8.78817 58.8391 7.98511 60.3242C8.13261 60.4466 8.28011 60.5771 8.43581 60.6995C8.94386 60.5363 9.45192 60.365 9.95997 60.2018C9.64039 61.0667 9.23067 61.9153 8.55053 62.3396C7.559 62.9516 7.59178 63.6207 8.0097 64.4449C9.86983 68.0597 12.3773 71.1441 15.6551 73.6002C24.0052 79.8424 32.4373 85.9623 41.3938 91.3315C45.5648 93.8365 49.7931 96.2355 53.9067 98.8303C58.0203 101.425 61.9618 104.297 66.0918 106.868C69.5826 109.038 73.4668 110.319 77.5886 110.711C78.6457 110.809 79.8503 110.948 80.3993 109.626C82.3004 105.056 85.7175 101.393 87.7005 96.7822C90.8472 89.4873 94.8379 82.5515 98.5581 75.2893V75.2974ZM114.201 32.4747C114.291 32.3768 114.382 32.2789 114.464 32.1891C113.988 31.6343 113.62 30.8509 113.013 30.5572C109.399 28.8028 105.614 27.3585 102.098 25.4328C96.6652 22.4626 91.2569 19.3864 86.0944 15.9756C81.3744 12.8585 76.9822 9.26004 72.4589 5.8574C70.9347 4.71503 70.1235 4.64975 68.5501 5.72684C67.9765 6.11851 67.4275 6.55098 66.9277 7.03241C61.0195 12.6953 55.0621 18.3174 49.2523 24.0783C46.1548 27.1464 43.2785 30.4429 40.3941 33.715C38.7552 35.5754 38.9519 36.318 40.9349 37.7786C43.2048 39.4595 45.5074 41.1078 47.6871 42.903C50.7437 45.4243 53.5871 48.2232 56.7338 50.614C60.4868 53.4618 64.4529 56.0321 68.3535 58.684C73.7372 62.3396 79.1947 65.9381 85.2176 68.4432C89.323 70.1567 93.6497 71.3807 97.9354 72.6292C99.9922 73.2248 101.639 72.2212 102.336 70.271C104.811 63.3759 107.351 56.4972 109.621 49.5369C111.219 44.6492 112.431 39.6309 113.792 34.6697C113.988 33.9598 114.062 33.2173 114.193 32.4829L114.201 32.4747ZM90.2326 98.5774C92.0354 94.5383 93.8463 90.4992 95.6491 86.4682C95.5344 86.4192 95.4197 86.3703 95.3132 86.3213C93.9283 90.5399 90.9865 94.0976 90.2326 98.5774ZM94.4855 92.8002C94.6904 92.8981 94.887 92.9961 95.0919 93.0858C96.6652 90.7195 97.6322 88.0675 98.5663 85.3993C98.4516 85.3503 98.3451 85.2932 98.2304 85.2442C96.9848 87.7656 95.7311 90.2788 94.4773 92.8002H94.4855ZM102.737 80.3565C102.516 80.2831 102.287 80.2096 102.065 80.128C101.795 81.0256 101.467 81.915 101.287 82.8289C101.246 83.0329 101.713 83.343 102.156 83.8326C102.393 82.4128 102.565 81.3765 102.729 80.3483L102.737 80.3565ZM100.599 83.0574C100.394 82.9921 100.189 82.9187 99.984 82.8534C99.6562 83.9142 99.3284 84.9831 99.0006 86.0439C99.2465 86.1173 99.4923 86.1908 99.7299 86.2642C100.017 85.1953 100.312 84.1263 100.599 83.0574Z" fill="black"/>
<path d="M90.2244 98.5773C90.9783 94.0976 93.9201 90.5399 95.305 86.3213C95.4197 86.3702 95.5344 86.4192 95.6409 86.4682C93.8382 90.5073 92.0272 94.5464 90.2244 98.5773Z" fill="white"/>
<path d="M94.4774 92.8002C95.7229 90.2788 96.9767 87.7656 98.2304 85.2442C98.3451 85.2932 98.4517 85.3503 98.5664 85.3992C97.6322 88.0675 96.6653 90.7194 95.0919 93.0858C94.8871 92.9879 94.6904 92.8899 94.4855 92.8002H94.4774Z" fill="white"/>
<path d="M102.729 80.3565C102.557 81.3846 102.385 82.4128 102.156 83.8408C101.713 83.3512 101.246 83.0411 101.287 82.8371C101.467 81.9232 101.787 81.0338 102.065 80.1362C102.287 80.2096 102.516 80.2831 102.737 80.3647L102.729 80.3565Z" fill="white"/>
<path d="M100.59 83.0574C100.304 84.1263 100.009 85.1953 99.7218 86.2642C99.4759 86.1908 99.2301 86.1173 98.9924 86.0439C99.3202 84.9831 99.648 83.9142 99.9758 82.8534C100.181 82.9187 100.386 82.9921 100.59 83.0574Z" fill="white"/>
<path d="M31.5687 66.1911C24.5543 65.522 17.548 64.8528 10.5336 64.1837C17.6464 63.6533 24.6362 64.5509 31.6179 65.6035C31.6015 65.7994 31.5851 65.9952 31.5687 66.1992V66.1911Z" fill="black"/>
<path d="M11.8447 66.6235C18.3019 66.2972 24.7018 67.3579 31.1344 67.823C24.669 68.231 18.2691 67.2437 11.8447 66.6235Z" fill="black"/>
<path d="M13.4918 61.4176C19.7195 60.6995 25.849 61.7685 31.9948 62.7232C25.7998 62.8455 19.6868 61.6297 13.4918 61.4176Z" fill="black"/>
<path d="M13.0165 69.0144C18.8182 69.2428 24.6116 69.4713 30.4133 69.6998C30.4133 69.8956 30.4133 70.0915 30.4051 70.2791C24.5789 70.9646 18.7936 69.6835 12.9756 69.6916C12.9919 69.4632 13.0001 69.2347 13.0165 69.0144Z" fill="black"/>
<path d="M30.782 59.9977C25.8162 59.5163 20.8422 59.0349 16.0566 58.5698C17.5152 57.5579 28.2172 58.2107 30.782 59.9977Z" fill="black"/>
<path d="M21.0389 51.332C24.2511 46.8605 28.9055 43.98 33.0929 40.5692C33.183 40.6672 33.2732 40.7732 33.3633 40.8712C29.2579 44.3554 25.1525 47.8478 21.0471 51.332H21.0389Z" fill="black"/>
<path d="M30.0691 72.6047C25.3164 72.4252 20.5718 72.2457 15.819 72.058L15.8354 71.7561H30.1511C30.1265 72.0417 30.1019 72.3191 30.0773 72.6047H30.0691Z" fill="black"/>
<path d="M32.5766 56.8399C29.135 56.5787 25.6933 56.3258 22.2516 56.0647C22.268 55.877 22.2762 55.6893 22.2926 55.5016C25.7589 55.673 29.2579 55.1997 32.675 56.2279C32.6422 56.4319 32.6094 56.6359 32.5766 56.8399Z" fill="black"/>
<path d="M33.3223 53.8127C30.569 53.5597 27.8156 53.3149 25.0623 53.062C25.6523 51.9359 31.0115 52.1317 33.3715 53.3965C33.3551 53.5352 33.3387 53.6739 33.3223 53.8127Z" fill="black"/>
<path d="M38.3455 47.1705H31.0934C31.7408 45.8323 36.4198 45.7997 38.3455 47.1705Z" fill="black"/>
<path d="M27.9467 50.3937C29.897 49.341 31.8719 49.594 33.8713 50.3937H27.9467Z" fill="black"/>
<path d="M19.7114 73.845H26.7914C26.7914 73.9266 26.7914 74.0164 26.7996 74.098H19.7196C19.7196 74.0164 19.7196 73.9266 19.7114 73.845Z" fill="black"/>
<path d="M35.1989 44.1351C36.3051 43.0172 38.8863 43.2049 40.1483 44.5921C38.4029 44.4289 36.8951 44.2901 35.1989 44.1351Z" fill="black"/>
<path d="M65.4363 21.1081C63.6827 22.9522 61.9946 24.7392 60.2738 26.5507C62.0028 27.7257 63.6417 28.8273 65.2806 29.937C66.2147 30.5653 66.9031 31.2426 66.141 32.4911C65.3789 33.7313 64.4939 33.4539 63.4778 32.899C61.4784 31.8138 59.4625 30.7612 57.3648 29.6433C56.0127 31.1692 54.6934 32.7032 53.3167 34.1883C52.6366 34.9227 52.7267 35.3796 53.5625 35.9263C55.6767 37.3135 57.7253 38.7986 59.8313 40.2021C61.2489 41.1486 60.6753 42.1033 60.0689 43.2375C59.4052 44.486 58.4956 44.3473 57.5778 43.825C56.2011 43.0499 54.8655 42.1686 53.5707 41.2629C51.5795 39.8675 49.6702 38.358 47.6544 37.0116C46.5317 36.2609 46.4989 35.6081 47.3594 34.6534C52.5546 28.9334 57.5614 23.0257 63.6089 18.1379C65.5428 16.5713 65.5346 16.5223 67.5832 17.9258C69.8367 19.468 72.0656 21.0347 74.2781 22.634C74.8926 23.0828 75.794 23.7111 74.8844 24.5108C74.1715 25.1391 73.6635 26.5997 72.1147 25.4818C69.9924 23.9477 67.7307 22.6014 65.4281 21.1081H65.4363Z" fill="black"/>
<path d="M64.1661 44.2575C64.6742 45.0735 65.0348 46.069 65.7395 46.6483C66.5589 47.3174 67.8782 47.5051 68.5502 46.5259C68.9107 46.0037 68.5666 44.894 68.3289 44.1188C68.165 43.5884 67.6652 43.1478 67.28 42.699C65.846 41.0344 65.6575 39.3943 66.7966 37.5175C67.9766 35.5755 69.6892 34.2699 71.9099 33.6906C73.6881 33.2255 75.0156 34.1149 76.1464 35.2817C77.2363 36.4078 77.5476 37.8194 76.8347 39.2637C76.3595 40.2266 75.7449 41.1568 75.0238 41.9401C74.7124 42.2747 73.6881 42.4624 73.4586 42.242C73.0571 41.8504 72.9997 41.0915 72.8277 40.4714C72.7949 40.3653 72.926 40.1939 73.0161 40.0797C73.5488 39.3861 74.1552 38.5946 73.2702 37.8765C72.336 37.1177 71.5493 37.8929 70.7709 38.4477C69.5335 39.3208 69.5991 40.1939 70.3202 41.4669C71.0085 42.6745 71.5247 44.1025 71.6477 45.4815C71.9591 48.9168 67.7471 51.2994 64.3792 49.7001C62.0438 48.5904 60.7409 46.7136 61.1998 44.9021C61.3719 44.2167 61.7406 43.466 62.2568 43.0172C62.683 42.6419 63.4942 42.5032 64.076 42.5929C64.3628 42.6419 64.5185 43.4579 64.7316 43.923C64.5349 44.029 64.3382 44.1433 64.1416 44.2494L64.1661 44.2575Z" fill="black"/>
<path d="M81.8333 41.2057C83.9639 41.5239 85.7339 41.8748 86.6763 43.5394C87.6022 45.1795 87.0286 46.836 86.1108 48.3211C85.4881 49.3329 84.5211 49.8388 83.292 49.39C82.1611 48.982 81.9808 48.1089 82.5463 47.0563C82.8495 46.5014 83.1281 45.612 82.8822 45.1551C82.3906 44.2085 81.399 44.5104 80.6452 44.9511C78.2442 46.3627 76.0891 48.0681 75.3925 50.924C75.2286 51.6095 75.5072 52.556 75.9088 53.1761C76.4496 54.0329 77.351 53.78 78.1868 53.4209C79.0472 53.0538 80.006 52.0991 80.8664 53.168C81.7104 54.2206 80.7189 55.1345 80.1699 55.9586C79.121 57.5335 76.7528 57.7048 74.655 56.4482C72.0656 54.8897 71.0331 50.9893 72.5818 48.3945C74.1142 45.8323 76.212 43.7924 78.785 42.291C79.7847 41.7116 80.9893 41.4831 81.817 41.1975L81.8333 41.2057Z" fill="black"/>
<path d="M101.033 63.637C97.288 65.3424 93.5923 67.1621 89.5771 68.1657C89.5115 67.9944 89.4459 67.823 89.3804 67.6517C93.2154 66.1747 97.0504 64.706 100.885 63.229C100.935 63.3596 100.992 63.4983 101.041 63.6289L101.033 63.637Z" fill="black"/>
<path d="M87.2826 64.3551C91.1668 62.8211 95.0018 61.1646 99.017 59.9896C99.0662 60.1202 99.1154 60.2589 99.1645 60.3895C95.2722 61.9153 91.3798 63.4412 87.4875 64.9671C87.4219 64.7631 87.3482 64.5591 87.2826 64.3551Z" fill="black"/>
<path d="M92.3714 59.6061C90.036 60.267 87.6924 60.928 85.357 61.5889C86.2174 60.1854 91.3143 59.0186 92.3714 59.6061Z" fill="black"/>
<path d="M93.6825 69.0878C95.9687 68.0188 98.1484 66.7133 100.582 65.9707C100.648 66.1176 100.721 66.2726 100.787 66.4195C98.5172 67.5293 96.2555 68.639 93.9857 69.7487C93.8791 69.5284 93.7808 69.3081 93.6743 69.0796L93.6825 69.0878Z" fill="black"/>
</svg>
