<svg width="463" height="176" viewBox="0 0 463 176" fill="none" xmlns="http://www.w3.org/2000/svg">
<path d="M392.467 6.97293C393.233 6.85639 393.822 7.04039 394.127 7.36547C394.746 8.03401 395.267 8.73935 395.748 9.44469C397.91 12.6463 400.219 15.8173 402.175 19.068C414.781 40.081 430.473 60.2354 445.694 80.5247C450.145 86.4618 455.323 92.1598 459.951 98.0356C460.59 98.8452 461.258 99.6486 461.759 100.489C462.653 101.979 462.329 103.372 459.951 104.169C457.642 104.942 455.461 104.439 453.859 103.249C452.817 102.476 451.943 101.562 451.294 100.63C438.275 81.9783 425.226 63.3389 412.335 44.6566C404.405 33.1687 398.696 21.184 392.349 9.34042C391.926 8.55534 390.953 7.69054 392.476 6.96066L392.467 6.97293Z" fill="black"/>
<path d="M382.66 41.7493C385.726 46.7787 389.076 51.7467 391.808 56.8497C403 77.7524 416.196 98.1766 429.736 118.515C434.01 124.937 438.304 131.352 442.579 137.774C443.61 139.319 444.731 140.853 445.035 142.539C445.242 143.656 444.681 144.643 442.952 145.103C441.174 145.569 439.651 145.073 438.688 144.128C437.695 143.159 436.87 142.11 436.123 141.055C426.916 128.095 419.723 114.645 411.489 101.446C400.848 84.3887 392.299 66.8962 384.134 49.3302C382.994 46.8829 381.766 44.4418 382.67 41.7493H382.66Z" fill="black"/>
<path d="M404.651 0.0544243C406.056 -0.129578 406.783 0.177092 407.196 0.612564C408.345 1.82698 409.613 3.03526 410.418 4.34167C423.389 25.4283 439.965 45.4723 455.873 65.7064C458.143 68.5952 460.157 71.5699 462.044 74.563C463.449 76.7956 462.732 78.2185 460.393 78.9361C457.927 79.6905 455.185 78.9484 453.269 76.9489C452.749 76.403 452.336 75.7958 451.992 75.1947C447.462 67.16 441.694 59.4442 435.75 51.8019C423.379 35.8858 413.612 19.344 404.533 2.61819C404.012 1.66138 403.216 0.722965 404.651 0.0605577V0.0544243Z" fill="black"/>
<path d="M388.231 24.3366C391.395 26.4587 392.879 28.5564 394.147 30.7092C408.07 54.2737 422.966 77.6052 437.371 101.059C441.075 107.082 446.155 112.713 450.076 118.668C450.548 119.38 451.098 120.073 451.589 120.784C452.513 122.121 452.395 123.416 450.263 124.17C447.737 125.059 445.871 124.152 444.632 122.821C443.296 121.373 442.088 119.87 441.036 118.331C435.455 110.161 429.952 101.973 425.246 93.5766C413.602 72.7905 401.054 52.1945 391.504 30.9668C390.58 28.9182 388.389 27.1027 388.222 24.3427L388.231 24.3366Z" fill="black"/>
<path d="M374.642 135.075C374.534 135.603 374.554 136.302 373.434 136.596C372.353 136.878 371.439 136.553 370.623 136.118C369.326 135.425 368.678 134.474 367.951 133.548C364.119 128.684 361.102 123.606 358.587 118.447C349.193 99.2438 340.9 79.8561 334.11 60.2231C332.459 55.4452 331.988 50.5323 329.895 45.7973C329.629 45.1963 329.738 44.5216 329.767 43.8837C329.787 43.4789 330.18 43.1784 330.858 43.0802C331.536 42.9821 332.135 43.1416 332.43 43.4912C332.892 44.0554 333.206 44.6627 333.57 45.2576C336.026 49.2443 336.773 53.5009 338.522 57.598C346.687 76.7465 354.784 95.9072 363.902 114.884C366.565 120.422 369.994 125.814 373.129 131.26C373.827 132.475 374.691 133.646 374.642 135.069V135.075Z" fill="black"/>
<path d="M356.729 40.4613C358.292 45.4416 360.797 49.9251 362.704 54.5068C370.368 72.8579 380.096 90.792 390.128 108.671C395.188 117.687 401.781 126.298 407.363 135.173C408.493 136.97 409.839 138.725 410.232 140.669C410.399 141.491 409.986 142.214 408.709 142.607C407.402 143 406.301 142.632 405.348 142.104C403.747 141.215 403.128 139.951 402.302 138.78C391.238 123.066 382.444 106.843 374.239 90.473C367.45 76.9366 361.456 63.2775 356.621 49.416C355.924 47.4043 355.413 45.3619 354.882 43.3317C354.656 42.4546 354.43 41.5408 356.739 40.4674L356.729 40.4613Z" fill="black"/>
<path d="M368.511 41.228C370.672 45.5459 372.49 49.0665 374.21 52.6116C384.861 74.5753 397.949 95.9808 411.873 117.202C417.415 125.654 422.514 134.229 428.311 142.625C429.294 144.042 431.377 145.735 428.076 147.066C426.248 147.808 424.076 146.686 421.954 144.079C416.51 137.406 412.433 130.383 408.394 123.354C401.015 110.505 393.616 97.6614 386.306 84.7996C379.27 72.404 374.229 59.6466 369.022 46.9198C368.373 45.3251 367.931 43.712 368.501 41.228H368.511Z" fill="black"/>
<path d="M341.794 44.3928C343.563 48.0544 345.459 51.6854 347.08 55.3715C356.287 76.3723 367.656 96.9254 379.545 117.374C383.829 124.753 387.288 132.315 392.358 139.522C392.683 139.988 392.938 140.491 393.085 140.994C393.292 141.662 393.026 142.331 392.103 142.705C390.934 143.177 389.617 143.024 388.713 142.423C387.74 141.779 386.925 141.012 386.237 140.233C383.751 137.406 381.658 134.462 380.027 131.401C365.681 104.543 350.618 77.8198 341.627 49.9742C341.028 48.1341 340.399 46.3248 341.804 44.3866L341.794 44.3928Z" fill="black"/>
<path d="M296.614 64.8538C298.363 65.0808 298.511 65.5899 298.747 66.0805C310.42 90.2707 322.044 114.467 333.815 138.633C336.095 143.312 338.964 147.882 341.548 152.506C341.892 153.114 342.266 153.721 342.462 154.352C342.718 155.15 342.56 155.91 341.165 156.297C339.848 156.659 338.679 156.352 337.795 155.775C336.026 154.635 335.279 153.144 334.356 151.703C328.303 142.356 324.402 132.61 320.334 122.876C314.085 107.91 307.256 93.0368 300.721 78.1204C299.366 75.0108 298.245 71.8643 296.988 68.7424C296.487 67.4912 296.192 66.24 296.624 64.8477L296.614 64.8538Z" fill="black"/>
<path d="M349.557 148.949C346.727 147.826 345.666 146.293 344.555 144.821C340.841 139.921 337.549 134.897 335.25 129.672C325.611 107.8 316.089 85.9098 306.637 64.0135C306.057 62.6765 304.446 61.229 306.332 59.3828C308.533 60.8119 308.975 62.4618 309.85 63.9461C316.532 75.3358 321.503 87.0506 327.036 98.6611C334.218 113.719 339.475 129.144 348.82 143.797C349.802 145.336 350.097 146.949 349.557 148.949Z" fill="black"/>
<path d="M318.821 50.4526C320.442 51.0904 320.55 52.0411 320.845 52.8814C328.529 74.9126 339.75 96.3366 349.596 117.994C354.096 127.899 359.029 137.706 365.258 147.25C365.563 147.71 365.779 148.256 365.691 148.734C365.514 149.728 364.443 150.077 363.106 149.544C361.298 148.826 360.345 147.612 359.628 146.422C355.914 140.289 351.748 134.229 348.78 127.948C342.197 114.001 335.928 99.9921 330.101 85.9159C325.876 75.7099 321.729 65.4671 319.106 55.0281C318.732 53.5499 318.222 52.0595 318.821 50.4587V50.4526Z" fill="black"/>
<path d="M219.471 103.531C219.51 103.089 219.51 102.832 219.559 102.574C219.667 102.041 219.952 101.532 220.896 101.44C221.878 101.341 222.34 101.795 222.556 102.317C223.411 104.439 224.58 106.493 226.044 108.487C236.381 122.502 246.246 136.639 255.178 151.022C256.289 152.813 257.291 154.647 258.106 156.499C258.735 157.928 258.765 159.48 255.896 159.983C253.351 160.431 252.23 159.186 251.425 157.94C248.133 152.813 244.802 147.692 241.618 142.533C235.615 132.818 229.66 123.097 223.784 113.357C221.829 110.118 219.795 106.868 219.471 103.531Z" fill="black"/>
<path d="M277.66 160.204C277.739 161.559 277.503 162.602 275.498 162.896C273.798 163.148 272.816 162.381 272.128 161.559C271.371 160.651 270.703 159.701 270.133 158.738C260.71 142.809 251.415 126.85 244.497 110.4C243.24 107.401 242.493 104.353 241.825 101.299C241.579 100.152 241.392 98.9923 241.913 97.8515C242.149 97.3241 242.758 96.8947 243.584 96.8518C244.517 96.8027 244.9 97.2689 245.048 97.8331C248.988 112.946 258.961 126.85 267.323 141.08C270.585 146.637 274.103 152.132 276.618 157.848C277.002 158.713 277.385 159.578 277.66 160.198V160.204Z" fill="black"/>
<path d="M334.375 161.522C331.555 160.848 331.221 159.48 330.416 158.364C321.15 145.539 313.603 132.315 307.05 118.871C302.549 109.628 298.304 100.336 293.883 91.0742C291.515 86.1061 290.512 80.9908 289.5 75.8756C289.402 75.391 289.265 74.8636 290.552 74.4158C291.613 75.1518 291.888 76.17 292.124 77.09C294.079 84.6341 298.088 91.8224 301.763 99.066C311.471 118.233 321.238 137.381 333.196 156.064C334.837 158.627 334.788 158.64 334.385 161.522H334.375Z" fill="black"/>
<path d="M206.628 143.883C206.481 145.287 206.392 146.588 204.064 146.821C202.089 147.017 201.224 145.968 200.605 144.987C198.63 141.877 196.616 138.78 194.798 135.633C186.888 121.968 179.371 108.223 173.495 94.1531C173.446 94.0304 173.377 93.9077 173.348 93.7789C173.092 92.6872 171.825 91.117 173.918 90.6938C176.315 90.2093 176.227 92.1229 176.924 93.0307C178.438 94.9933 179.823 97.0235 180.806 99.1089C185.001 108.008 190.946 116.503 196.075 125.182C199.003 130.125 202.039 135.044 204.928 139.994C205.705 141.319 206.137 142.717 206.628 143.877V143.883Z" fill="black"/>
<path d="M178.261 126.525C178.28 128.709 177.593 130.064 174.92 130.426C172.473 130.757 170.999 129.69 170.223 128.445C167.835 124.605 165.212 120.803 163.443 116.853C160.171 109.548 155.592 102.47 153.421 94.9688C153.126 93.9629 152.841 92.9387 152.802 91.9205C152.762 91.0986 153.489 90.4301 154.855 90.2093C156.28 89.9824 157.204 90.4853 157.862 91.1968C158.167 91.528 158.383 91.896 158.569 92.2579C163.325 101.722 169.977 110.744 175.107 120.116C176.364 122.422 177.406 124.777 178.261 126.525Z" fill="black"/>
<path d="M195.142 92.2395C198.404 97.7902 201.47 102.955 204.467 108.137C210.49 118.546 217.339 128.733 224.944 138.737C227.233 141.748 229.1 144.895 230.997 148.017C231.724 149.207 232.195 150.488 232.451 151.752C232.687 152.905 232.549 154.236 230.24 154.543C228.206 154.812 227.43 153.708 226.83 152.733C215.884 134.707 203.287 117.055 195.505 98.3177C195.093 97.3241 194.759 96.3121 194.572 95.2939C194.415 94.4169 194.11 93.503 195.132 92.2395H195.142Z" fill="black"/>
<path d="M273.209 99.2315C273.199 98.9126 273.12 98.3667 274.25 98.2686C275.262 98.1827 275.754 98.6489 276.019 99.115C276.982 100.814 277.965 102.513 278.741 104.243C286.395 121.342 294.02 138.455 301.645 155.561C301.92 156.174 302.254 156.794 302.362 157.425C302.48 158.094 302.068 158.701 301.075 159.051C299.837 159.486 298.629 159.302 297.675 158.732C295.966 157.707 295.386 156.303 294.796 154.941C292.861 150.47 290.866 146.005 289.127 141.503C284.057 128.371 279.104 115.221 274.113 102.071C273.779 101.194 273.543 100.305 273.199 99.2377L273.209 99.2315Z" fill="black"/>
<path d="M111.091 168.03C111.14 169.41 111.12 170.496 109.44 170.723C107.268 171.017 106.767 169.821 106.335 168.815C104.183 163.847 102.021 158.885 99.4469 153.991C95.1333 145.784 90.2007 137.731 84.9733 129.745C81.5342 124.489 79.0089 119.049 76.6114 113.59C76.0611 112.333 74.4104 110.229 76.8669 109.806C79.8441 109.296 79.176 111.713 79.7655 112.86C84.9733 122.925 92.2543 132.475 98.3955 142.306C102.739 149.262 106.895 156.266 109.676 163.553C110.295 165.178 110.707 166.834 111.081 168.036L111.091 168.03Z" fill="black"/>
<path d="M260.848 99.4094C263.629 101.685 264.994 104.267 266.144 106.819C273.474 123.072 283.506 138.786 290.837 155.033C291.23 155.898 291.642 156.769 291.878 157.652C292.094 158.474 291.642 159.229 290.345 159.572C288.95 159.94 287.879 159.412 287.289 158.713C286.228 157.468 285.157 156.192 284.499 154.855C277.08 139.841 268.768 124.986 263.992 109.505C262.951 106.125 260.563 102.924 260.848 99.4033V99.4094Z" fill="black"/>
<path d="M136.579 133.615C136.353 134.995 137.208 137.062 134.054 137.369C131.027 137.663 130.31 135.676 129.701 134.204C128.001 130.095 126.35 125.979 124.857 121.839C121.958 113.792 117.733 106.003 113.419 98.2257C112.957 97.3854 111.926 96.398 113.557 95.8275C115.355 95.2019 116.593 96.171 117.625 96.9868C118.126 97.3854 118.519 97.8516 118.863 98.3177C126.665 108.597 132.364 119.312 135.98 130.457C136.304 131.463 136.373 132.499 136.579 133.622V133.615Z" fill="black"/>
<path d="M121.26 151.237C121.152 151.862 121.123 152.377 120.946 152.874C120.769 153.402 120.229 153.849 119.403 153.972C118.273 154.144 117.32 153.764 116.868 153.156C116.269 152.341 115.807 151.476 115.483 150.599C111.474 139.792 105.775 129.285 100.793 118.65C98.4642 113.67 96.8822 108.64 95.8898 103.519C95.8111 103.132 95.7227 102.752 95.7129 102.366C95.7129 101.716 95.7424 100.967 96.951 100.777C98.2676 100.569 98.6607 101.299 98.9358 101.9C99.4468 103.016 99.938 104.138 100.282 105.279C101.697 109.983 104.173 114.485 106.561 119.018C111.012 127.464 115.119 135.977 119.177 144.502C120.229 146.71 120.592 149.047 121.241 151.237H121.26Z" fill="black"/>
<path d="M286.307 92.2518C288.341 92.6014 288.596 93.4969 288.95 94.3801C290.149 97.3793 291.436 100.366 292.586 103.365C297.744 116.798 305.526 129.702 312.916 142.687C314.232 144.993 315.46 147.311 316.64 149.648C316.964 150.286 316.767 151.016 315.5 151.182C314.645 151.292 313.996 150.832 313.672 150.347C311.569 147.268 309.417 144.202 307.423 141.098C298.992 127.93 291.357 114.596 286.415 100.722C285.609 98.4588 284.735 96.2017 284.558 93.8771C284.489 93 285.265 92.4787 286.317 92.2518H286.307Z" fill="black"/>
<path d="M155.926 124.661C155.799 125.256 155.818 125.918 155.484 126.507C154.57 128.12 151.927 128.39 150.198 127.065C149.127 126.243 148.832 125.213 148.429 124.213C144.597 114.872 140.726 105.537 136.923 96.1955C136.471 95.0854 136.284 93.9261 136.166 92.7792C136.098 92.1291 136.55 91.4789 137.739 91.3133C138.898 91.1477 139.684 91.5341 140.156 92.1843C140.411 92.5339 140.657 92.8896 140.863 93.2515C145.953 102.084 151.023 110.922 154.669 120.042C155.268 121.533 155.504 123.084 155.926 124.661Z" fill="black"/>
<path d="M91.8218 174.163C87.5672 173.415 85.9262 171.655 84.3246 169.864C80.4925 165.589 77.5938 161.05 74.6362 156.536C69.4088 148.575 63.7589 140.706 60.1724 132.37C59.2488 130.236 57.883 128.071 58.6887 125.752C60.5556 125.808 60.536 126.574 60.8406 127.138C68.1314 140.693 78.488 153.426 88.0585 166.368C89.778 168.692 91.6253 170.962 91.8218 174.169V174.163Z" fill="black"/>
<path d="M126.046 50.7409C126.183 52.2865 124.13 53.4825 121.31 53.5009C118.205 53.5254 115.493 52.1577 115.267 50.4526C115.06 48.8886 117.035 47.5024 119.639 47.3859C122.577 47.2571 125.898 48.9929 126.046 50.7347V50.7409Z" fill="black"/>
<path d="M145.796 68.7363C148.596 68.6872 151.043 70.0243 151.19 71.6926C151.347 73.3915 149.137 74.8635 146.317 74.9371C143.506 75.0107 141.138 73.6982 140.981 71.9747C140.814 70.2267 142.956 68.7853 145.796 68.7363Z" fill="black"/>
<path d="M111.169 66.24C111.346 68.5339 108.536 70.3432 105.372 70.4291C102.532 70.5027 100.4 69.3741 100.39 67.7856C100.38 66.1418 102.699 64.8477 105.814 64.9029C108.005 64.9397 110.137 65.2218 111.169 66.24Z" fill="black"/>
<path d="M192.754 157.082C192.587 158.554 190.661 159.572 188.136 159.535C185.119 159.492 182.535 157.849 182.722 156.094C182.879 154.622 184.805 153.604 187.33 153.647C190.356 153.696 192.941 155.34 192.744 157.082H192.754Z" fill="black"/>
<path d="M80.8168 70.4721C80.748 72.1526 78.6846 73.4345 76.1986 73.3425C73.7421 73.2505 71.718 71.7907 71.9833 70.2022C72.2584 68.5952 73.8109 67.663 76.346 67.5342C78.8811 67.4054 80.8856 68.7915 80.8168 70.4721Z" fill="black"/>
<path d="M23.954 74.1459C23.8754 75.4769 22.0871 76.3846 19.6994 76.2865C16.9579 76.1761 14.7176 74.8942 14.7372 73.4467C14.7569 71.987 16.84 70.9075 19.3456 71.0608C21.8709 71.208 24.0326 72.6617 23.9442 74.1459H23.954Z" fill="black"/>
<path d="M9.74566 117.031C10.1289 119.944 7.57412 121.551 4.81303 123.066C4.01713 123.501 2.91662 123.655 1.99298 123.244C0.85317 122.729 0.705781 121.925 1.26586 121.189C2.87732 119.073 4.75407 117.11 9.73583 117.031H9.74566Z" fill="black"/>
<path d="M46.8583 103.715C44.9324 103.635 44.2348 102.764 44.1955 101.648C44.1365 99.9553 46.367 98.471 48.6761 98.6611C50.5234 98.8145 51.6239 99.5259 51.7123 100.704C51.8106 102.077 49.1772 103.727 46.8583 103.715Z" fill="black"/>
<path d="M120.848 23.2939C120.966 24.5022 119.069 25.6 116.799 25.5878C114.746 25.5755 113.183 25.048 112.948 23.6558C112.741 22.4536 114.736 21.3251 116.976 21.3373C119.059 21.3496 120.464 21.9507 120.848 23.3V23.2939Z" fill="black"/>
<path d="M50.0321 78.8502C49.8159 80.0524 50.1696 81.4201 47.949 82.1378C46.9074 82.469 45.9543 82.2359 45.237 81.7452C43.655 80.6596 44.107 79.4023 44.7359 78.1878C45.2468 77.1881 46.141 76.2497 48.1062 76.4276C50.3563 76.63 49.8552 77.8689 50.0321 78.8441V78.8502Z" fill="black"/>
<path d="M152.861 44.5216C154.718 44.5645 155.985 45.1043 156.182 46.2819C156.408 47.6006 155.435 48.5083 153.234 48.6187C151.377 48.7107 150.159 48.0483 149.913 46.8891C149.618 45.5275 150.787 44.7853 152.851 44.5277L152.861 44.5216Z" fill="black"/>
<path d="M104.979 83.4503C104.772 84.7751 103.829 85.5664 101.913 85.6338C99.9479 85.7013 98.7786 84.9408 98.6803 83.7815C98.5722 82.6039 99.5941 81.8188 101.608 81.782C103.583 81.7452 104.507 82.5242 104.989 83.4503H104.979Z" fill="black"/>
<path d="M152.654 165.46C152.222 166.914 151.004 167.693 148.881 167.65C146.955 167.613 145.914 166.822 146.002 165.65C146.091 164.442 147.388 163.822 149.255 163.853C151.023 163.884 152.291 164.436 152.654 165.46Z" fill="black"/>
<path d="M203.229 173.746C203.12 174.55 202.482 175.132 201.018 175.114C199.858 175.102 199.17 174.611 199.151 173.912C199.131 173.035 199.947 172.513 201.371 172.501C202.58 172.489 203.111 172.986 203.229 173.74V173.746Z" fill="black"/>
<path d="M173.898 140.417C173.652 141.153 172.866 141.57 171.727 141.429C170.665 141.301 169.928 140.81 170.262 140.037C170.498 139.51 171.108 139.178 172.051 139.191C173.309 139.209 173.81 139.694 173.898 140.411V140.417Z" fill="black"/>
<path d="M179.499 63.4309C178.271 63.4309 177.455 63.0997 177.327 62.3637C177.2 61.6277 177.878 61.1431 179.027 61.0511C180.236 60.953 180.963 61.4069 181.11 62.1184C181.258 62.8544 180.59 63.2898 179.499 63.437V63.4309Z" fill="black"/>
<path d="M1.43294 101.962C0.548601 101.9 -0.119563 101.643 0.0179999 101.041C0.116259 100.63 0.813902 100.489 1.3445 100.654C1.81615 100.802 2.33692 101.103 2.48431 101.403C2.71031 101.876 2.03232 101.95 1.43294 101.956V101.962Z" fill="black"/>
</svg>
