<svg width="198" height="284" viewBox="0 0 198 284" fill="none" xmlns="http://www.w3.org/2000/svg">
<path d="M113.178 4.91534C115.548 2.14525 118.482 1.16436 121.506 0.764743C129.871 -0.352376 139.198 4.62471 141.469 12.5989C142.468 16.1229 144.666 19.9647 143.122 24.1607C141.523 28.4929 139.117 30.6363 134.53 30.7998C132.323 30.8725 130.071 30.6908 127.882 30.3366C115.766 28.3748 113.477 28.7563 103.278 34.8959C100.871 33.3247 98.3644 31.6717 95.5762 29.8552C99.1001 25.6411 102.887 22.653 108.373 23.1344C113.305 23.5703 118.227 24.2606 123.132 24.9872C126.81 25.5321 130.352 25.1052 133.622 23.4613C138.935 20.8002 139.271 16.8949 134.748 13.0803C131.115 10.0196 127.101 9.56546 122.714 11.0095C119.898 11.9359 117.613 11.1549 115.857 8.66632C115.067 7.5492 114.277 6.44116 113.187 4.91534H113.178Z" fill="white"/>
<path d="M167.697 124.318C175.88 120.749 178.777 114.591 175.925 107.153C174.89 104.446 173.064 103.111 170.285 102.593C160.721 100.786 152.838 104.237 147.516 112.774C146.353 114.636 145.372 116.607 144.237 118.651C139.996 117.506 135.945 116.426 132.221 115.417C132.012 114.645 131.885 114.446 131.931 114.337C136.608 104.573 143.02 96.2084 152.357 90.5411C162.774 84.2198 177.66 86.6266 186.106 97.271C188.795 100.668 190.13 105.254 189.648 109.85C188.359 121.938 183.409 131.829 172.174 137.705C167.778 140.003 163.401 142.346 158.878 144.381C150.685 148.068 143.165 152.337 141.149 162.745C136.553 161.483 132.394 160.347 127.753 159.076C129.56 150.384 132.503 142.8 140.014 137.769C141.721 136.624 143.465 135.553 145.191 134.445C147.888 133.282 150.586 132.129 153.274 130.966C156.435 129.731 159.586 128.505 162.747 127.27L162.52 127.415C164.309 126.325 166.098 125.244 167.887 124.155L167.697 124.318Z" fill="white"/>
<path d="M0.782682 134.97C2.09053 132.209 3.60727 129.52 4.66081 126.668C8.21198 117.114 15.6594 111.147 23.7699 105.879C26.9033 103.845 30.3818 102.219 33.8966 100.938C47.7198 95.8795 62.5239 104.381 66.8471 115.379C68.4728 119.512 70.3074 123.58 71.7061 127.786C74.6034 136.468 74.0493 145.323 72.6325 154.215C71.7969 159.446 71.2066 164.714 70.589 169.973C69.4355 179.881 69.49 189.763 71.3337 199.599C72.914 208.009 76.6923 215.448 81.1789 222.604C82.1689 224.185 83.0862 225.82 84.1761 227.663C79.9074 231.868 75.775 235.937 71.5971 240.051C71.0794 239.797 70.4709 239.706 70.2348 239.361C64.4312 230.833 59.6085 221.742 56.1391 212.06C52.1247 200.852 53.9139 189.391 55.8121 178.029C56.9747 171.108 58.4006 164.215 59.2089 157.258C60.3079 147.721 58.6821 138.494 54.7223 129.72C52.6152 125.043 49.3819 121.219 44.7499 119.112C36.9937 115.588 27.1213 119.303 23.3703 126.995C17.4668 139.111 18.8291 150.855 25.6408 162.207C27.2938 164.959 28.8469 167.775 30.5453 170.727C25.323 175.413 20.5003 179.727 15.1962 184.477C9.33818 177.565 7.13119 168.883 3.57094 160.9C-0.189121 152.462 -0.788551 143.752 0.927998 134.788L0.782682 134.961V134.97Z" fill="white"/>
<path d="M2.78265 139.97C5.83429 125.629 13.4271 114.639 26.4329 107.473C33.0993 103.795 39.8565 101.452 47.6763 100.734C55.7504 99.9895 62.8891 102.478 70.2367 104.285C76.6669 105.875 82.7884 108.745 89.037 111.052C89.5183 111.233 89.9815 111.615 90.4629 111.615C96.5752 111.678 99.2363 116.092 101.852 120.57C105.658 127.082 107.538 134.148 107.583 141.65C107.628 150.251 106.593 158.77 104.086 167.008C98.0466 186.87 102.206 204.871 113.577 221.665C114.731 223.363 115.802 225.161 117.174 226.669C119.935 229.721 119.708 232.845 117.673 236.015C115.385 239.584 112.941 243.053 110.235 247.077C113.014 247.458 115.63 247.858 118.255 248.176C120.798 248.485 123.359 248.693 125.902 249.011C127.046 249.157 128.518 249.093 129.253 249.756C134.367 254.379 138.917 259.356 140.379 266.504C141.314 271.063 140.679 274.987 137.418 278.374C137.182 278.62 136.773 278.801 136.692 279.083C135.157 284.35 130.679 283.914 126.747 283.887C121.624 283.86 116.502 283.315 111.388 282.934C109.508 282.797 107.628 282.234 105.776 282.334C97.0294 282.806 91.6163 277.929 87.7654 270.954C84.7683 265.532 82.3797 259.801 84.3323 252.835C80.9901 252.036 77.9021 250.919 74.7505 250.673C72.5526 250.501 71.272 249.647 70.1277 248.058C69.0287 246.523 67.7299 245.106 66.8399 243.462C60.1008 231.038 54.5243 218.195 53.7433 203.818C53.5798 200.775 54.0066 197.696 54.161 194.627C53.6797 194.609 53.1711 194.445 53.0621 194.599C50.2738 198.205 46.65 198.314 42.5085 197.651C34.7522 196.416 26.9506 195.39 19.1307 194.581C16.4242 194.3 14.4988 193.146 13.2636 191.039C11.2837 187.661 9.24923 184.227 7.9323 180.567C4.29031 170.441 0.339521 160.278 1.09335 149.197C1.31132 146.037 2.28313 142.93 2.91888 139.797C1.20234 148.761 1.80177 157.471 5.56183 165.909C9.12208 173.892 11.3291 182.575 17.1871 189.486C22.4912 184.736 27.3139 180.413 32.5362 175.736C30.8378 172.775 29.2847 169.968 27.6317 167.216C20.82 155.864 19.4577 144.12 25.3612 132.004C29.1121 124.312 38.9846 120.597 46.7408 124.121C51.3819 126.228 54.6061 130.061 56.7132 134.729C60.673 143.503 62.2988 152.73 61.1998 162.267C60.4006 169.233 58.9656 176.117 57.803 183.038C55.8958 194.409 54.1066 205.861 58.13 217.069C61.5994 226.751 66.4221 235.842 72.2257 244.37C72.4618 244.715 73.0703 244.815 73.588 245.061C77.7659 240.946 81.8983 236.877 86.167 232.672C85.0771 230.829 84.1689 229.194 83.1698 227.613C78.6832 220.457 74.9049 213.018 73.3246 204.608C71.4718 194.763 71.4264 184.881 72.5799 174.982C73.1884 169.723 73.7878 164.455 74.6234 159.224C76.0402 150.342 76.5943 141.486 73.697 132.795C72.2893 128.59 70.4637 124.521 68.838 120.388C64.5148 109.39 49.7107 100.889 35.8875 105.947C32.3727 107.228 28.8942 108.854 25.7608 110.888C17.6503 116.156 10.2029 122.132 6.6517 131.677C5.58907 134.529 4.07233 137.218 2.77357 139.979L2.78265 139.97ZM31.2828 184C32.8813 184.3 34.4888 184.609 36.0873 184.909C34.5161 183.555 32.8177 183.01 31.0739 182.72C30.7015 182.656 30.1657 183.537 29.7116 183.982C28.8124 184.382 27.9224 184.791 27.0232 185.19C34.1437 188.405 41.7093 189.041 49.0931 190.558C44.8245 188.932 40.4105 187.815 36.0782 186.444C34.3889 185.908 32.8722 184.827 31.2828 183.991V184ZM115.92 275.259C121.706 275.268 127.301 277.739 134.049 277.012C129.353 274.469 115.085 272.153 111.579 273.043C111.57 273.206 111.506 273.497 111.561 273.524C113.06 274.16 114.567 274.769 116.093 275.395C114.413 275.977 112.033 274.315 110.544 277.375H120.861C118.572 276.394 117.246 275.831 115.92 275.259ZM93.8506 249.765C88.4375 251.809 86.1579 254.997 87.1569 260.155C88.4648 266.958 91.9705 272.598 97.6833 276.576C100.108 278.265 103.205 279.055 105.948 277.475C108.636 275.922 109.1 272.798 108.455 270.173C107.447 266.086 105.903 262.09 104.177 258.23C102.197 253.807 97.9194 251.836 93.8506 249.756V249.765ZM57.031 146.672C52.2265 154.865 52.1085 167.325 56.5224 173.238C58.4933 164.546 59.0291 156.136 57.031 146.672ZM82.1344 245.787C85.7855 245.397 88.7463 246.214 92.2975 244.334C90.4992 243.662 89.4729 243.28 87.8653 242.681C90.4175 242.009 92.4428 241.473 94.4772 240.946C90.2812 241.682 84.8773 238.921 82.1435 245.787H82.1344ZM92.906 233.617C103.777 236.578 111.052 236.877 113.577 234.798C106.711 234.407 99.8085 234.007 92.906 233.617ZM98.7005 238.312C92.6214 237.634 88.716 238.104 86.9844 239.72C91.4074 239.193 95.0585 238.748 98.7005 238.312ZM35.9602 192.056C35.8966 192.474 35.833 192.883 35.7604 193.301C37.8402 193.573 39.92 193.846 41.9999 194.127L42.0998 193.346C40.0563 192.919 38.0128 192.492 35.9693 192.056H35.9602ZM99.7994 244.534C99.7813 244.77 99.754 245.006 99.7359 245.233C101.425 245.524 103.114 245.823 104.804 246.114C104.849 245.669 104.895 245.233 104.94 244.788C103.233 244.697 101.516 244.616 99.8085 244.525L99.7994 244.534ZM37.813 180.767C37.8584 180.504 37.9038 180.24 37.9401 179.977C36.7957 179.65 35.6605 179.314 34.5161 178.987C34.4162 179.387 34.3254 179.777 34.2255 180.177C35.4243 180.377 36.6141 180.567 37.813 180.767ZM25.0615 187.116C24.9706 187.588 24.8798 188.069 24.7799 188.542C25.9697 188.687 27.1504 188.832 28.3402 188.968C28.3856 188.696 28.4401 188.424 28.4855 188.151C27.3411 187.806 26.2058 187.461 25.0615 187.116ZM89.4547 247.495C89.4002 247.131 89.3458 246.777 89.2913 246.414C88.0652 246.559 86.8481 246.695 85.622 246.841C85.6856 247.222 85.7401 247.604 85.8037 247.994C87.0207 247.831 88.2377 247.667 89.4457 247.495H89.4547ZM25.3521 190.839C25.3521 190.603 25.3521 190.367 25.3521 190.122C24.3712 190.067 23.3903 190.013 22.4094 189.949C22.4094 190.24 22.4094 190.54 22.4094 190.83H25.3521V190.839Z" fill="black"/>
<path d="M132.968 121.705C130.861 120.261 130.788 118.581 132.032 116.419C136.419 108.799 141.46 101.742 148.072 95.8388C159.924 85.258 179.079 86.9201 189.396 99.4082C189.932 100.053 190.341 100.834 190.659 101.615C192.493 106.047 194.464 110.425 196.035 114.948C198.923 123.213 198.96 130.951 193.892 138.925C187.734 148.607 179.669 154.692 168.598 157.353C164.974 158.225 161.641 160.223 159.307 163.429C156.001 167.988 152.658 172.52 148.944 177.588C145.928 177.134 142.441 176.617 138.127 175.972C139.035 177.416 139.38 178.66 140.17 179.096C143.167 180.731 143.531 183.437 142.977 186.18C142.341 189.332 141.224 192.402 140.088 195.426C138.717 199.086 135.393 200.249 131.987 200.975C130.943 201.193 129.444 200.939 128.636 200.285C126.002 198.169 123.495 195.871 121.17 193.419C120.298 192.501 119.681 190.994 119.617 189.713C119.29 183.247 121.234 177.561 126.056 173.056C126.492 172.648 127.301 172.639 127.936 172.439C123.904 176.816 120.916 181.648 121.079 187.888C121.134 189.977 121.152 192.12 123.35 193.21C125.557 194.309 127.346 193.001 128.954 191.757C135.829 186.416 136.673 177.171 130.943 170.668C132.223 171.085 133.24 170.622 132.505 169.333C131.188 167.007 129.453 164.919 127.319 161.949C129.253 157.471 131.133 152.231 133.731 147.372C136.555 142.086 144.5 135.794 155 133.794C153.274 134.902 143.703 139.643 142.005 140.787C134.494 145.828 131.542 153.402 129.744 162.094C134.376 163.366 138.544 164.501 143.14 165.763C145.156 155.355 152.676 151.095 160.869 147.399C165.383 145.364 169.769 143.021 174.165 140.723C185.4 134.847 190.359 124.957 191.639 112.868C192.13 108.272 190.795 103.686 188.097 100.289C179.66 89.6447 164.765 87.2379 154.348 93.5592C145.011 99.2265 138.599 107.6 133.922 117.355C133.867 117.464 133.994 117.664 134.212 118.436C137.945 119.435 141.987 120.524 146.228 121.669C147.363 119.625 148.344 117.654 149.507 115.793C154.829 107.255 162.712 103.804 172.276 105.611C175.055 106.138 176.881 107.464 177.916 110.171C180.768 117.618 179 123.294 165 130.294C166.163 129.086 172.04 124.957 173.157 123.712C174.483 122.241 175.736 120.706 177.807 118.272C174.801 117.918 172.839 117.3 170.986 117.545C164.22 118.436 157.799 120.452 153.748 126.428C150.969 130.542 147.718 131.223 143.185 129.906C139.435 128.817 135.166 128.907 134.539 123.676C136.537 122.777 135.738 121.469 134.721 120.615C133.64 119.707 132.923 120.343 132.95 121.723L132.968 121.705ZM134.902 169.614C134.476 167.97 134.984 165.691 132.078 165.209C132.405 166.063 132.487 166.544 132.741 166.899C133.422 167.834 134.176 168.706 134.902 169.605V169.614Z" fill="black"/>
<path d="M102.088 46.5131C100.063 45.0871 98.4099 43.9246 96.1938 42.3625C95.8941 44.3878 95.6852 46.1316 95.3582 47.8481C94.4046 52.8616 90.1813 56.1312 85.3859 55.1503C83.7511 54.8143 81.6077 53.6063 80.981 52.2167C76.8031 42.9891 81.4169 36.5952 89.1823 35.0058C90.1541 34.806 91.144 34.7152 92.3066 34.5517C92.461 32.8352 92.6063 31.3275 92.7153 30.0832C98.0102 23.9436 104.758 21.8002 112.515 22.4269C112.36 21.6186 112.415 21.1372 112.224 21.0191C106.103 16.9503 108.582 11.5827 110.262 6.57832C111.434 3.1089 118.818 -0.224295 123.432 0.0118441C132.823 0.493204 139.671 4.58931 143.467 13.4808C145.293 17.7495 147.727 21.9637 145.374 26.5956C143.095 31.0914 140.424 35.4327 137.5 39.547C136.737 40.6187 134.376 41.0092 132.795 40.9275C129.916 40.7821 126.937 40.4279 124.24 39.4743C116.856 36.8586 110.853 39.4743 105.176 43.8519C104.241 44.5785 103.378 45.3869 102.088 46.504V46.5131ZM113.178 5.91532C114.268 7.44114 115.058 8.54918 115.848 9.6663C117.604 12.1548 119.889 12.9359 122.705 12.0095C127.083 10.5654 131.106 11.0196 134.739 14.0803C139.262 17.8948 138.926 21.7911 133.613 24.4613C130.334 26.1052 126.801 26.5321 123.123 25.9871C118.218 25.2696 113.305 24.5703 108.364 24.1343C102.878 23.6439 99.082 26.6411 95.5671 30.8552C98.3554 32.6808 100.862 34.3247 103.269 35.8959C113.468 29.7563 115.757 29.3748 127.873 31.3366C130.062 31.6908 132.314 31.8724 134.521 31.7998C139.117 31.6363 141.514 29.4929 143.113 25.1606C144.666 20.9646 142.459 17.1228 141.46 13.5989C139.189 5.62469 129.871 0.647603 121.497 1.76472C118.473 2.16434 115.539 3.14523 113.169 5.91532H113.178ZM85.7401 46.7492C89.6182 46.3677 91.7435 44.8238 93.0877 42.199C94.559 39.3471 92.7516 36.2228 89.591 36.7859C87.4203 37.1765 85.2406 38.6296 83.5422 40.1282C82.6703 40.9002 82.1889 43.1163 82.6703 44.1607C83.2516 45.4413 85.0226 46.1861 85.7401 46.7401V46.7492ZM120.026 23.0717C125.557 25.0335 126.193 25.0153 128.972 22.9264C125.72 21.8002 122.859 22.1272 120.026 23.0717ZM111.071 8.63092C110.744 10.956 110.417 13.281 109.926 16.7595C112.221 13.3325 112.602 10.623 111.071 8.63092ZM95.1039 38.7114C98.2827 34.5335 98.2101 34.361 93.6962 33.4982C94.1957 35.3419 94.6498 37.0312 95.1039 38.7114ZM82.6521 50.7817C82.8429 50.7363 83.0336 50.6818 83.2152 50.6364C83.0427 49.9098 82.8701 49.1832 82.6885 48.4657C82.4705 48.5293 82.2434 48.5929 82.0254 48.6565C82.2343 49.3649 82.4432 50.0824 82.6521 50.7908V50.7817Z" fill="black"/>
<path d="M130.952 170.649C136.683 177.152 135.838 186.398 128.963 191.739C127.355 192.983 125.566 194.291 123.359 193.192C121.17 192.102 121.143 189.958 121.088 187.869C120.925 181.63 123.913 176.789 127.945 172.421C128.945 171.83 129.953 171.24 130.952 170.64V170.649Z" fill="white"/>
<path d="M164.747 130.261C161.586 131.496 158.435 132.722 155.274 133.957C157.853 131.26 161.386 130.96 164.747 130.261Z" fill="black"/>
<path d="M132.968 121.705C132.941 120.325 133.658 119.689 134.739 120.597C135.747 121.451 136.546 122.768 134.557 123.658C134.031 123.004 133.504 122.35 132.977 121.696L132.968 121.705Z" fill="white"/>
<path d="M93.8506 249.765C97.9286 251.845 102.197 253.816 104.177 258.239C105.903 262.09 107.447 266.095 108.455 270.182C109.1 272.807 108.637 275.931 105.948 277.484C103.196 279.074 100.108 278.274 97.6833 276.585C91.9615 272.607 88.4648 266.958 87.157 260.164C86.167 255.006 88.4376 251.818 93.8506 249.774V249.765Z" fill="white"/>
<path d="M116.084 275.386C114.576 274.769 113.069 274.16 111.561 273.524C111.506 273.506 111.57 273.216 111.579 273.043C115.076 272.153 129.353 274.469 134.049 277.012C127.301 277.739 121.706 275.268 115.92 275.259L116.084 275.386Z" fill="white"/>
<path d="M31.2829 184C32.8814 184.836 34.389 185.917 36.0783 186.453C40.4106 187.824 44.8246 188.941 49.0932 190.567C41.7184 189.041 34.1438 188.405 27.0233 185.199C27.9225 184.8 28.8125 184.391 29.7117 183.991C30.2384 183.991 30.7561 183.991 31.2829 184Z" fill="white"/>
<path d="M82.1345 245.778C84.8682 238.903 90.2722 241.664 94.4682 240.937C92.4428 241.473 90.4175 242 87.8563 242.672C89.4638 243.271 90.4992 243.653 92.2884 244.325C88.7373 246.196 85.7764 245.387 82.1254 245.778H82.1345Z" fill="white"/>
<path d="M92.906 233.617C99.8085 234.007 106.72 234.407 113.577 234.798C111.043 236.877 103.768 236.578 92.906 233.617Z" fill="white"/>
<path d="M98.7005 238.312C95.0585 238.748 91.4074 239.184 86.9844 239.72C88.7161 238.103 92.6214 237.634 98.7005 238.312Z" fill="white"/>
<path d="M115.92 275.259C117.246 275.822 118.572 276.394 120.861 277.375H110.544C112.042 274.315 114.422 275.986 116.093 275.395L115.92 275.268V275.259Z" fill="white"/>
<path d="M31.2828 184C30.756 184 30.2383 184 29.7115 183.991C30.1747 183.546 30.7015 182.665 31.0739 182.729C32.8177 183.02 34.5161 183.564 36.0873 184.918C34.4888 184.618 32.8813 184.309 31.2828 184.009V184Z" fill="white"/>
<path d="M35.9602 192.056C38.0037 192.483 40.0473 192.91 42.0908 193.346L41.9909 194.127C39.911 193.855 37.8312 193.582 35.7513 193.301C35.8149 192.883 35.8785 192.474 35.9512 192.056H35.9602Z" fill="white"/>
<path d="M99.7995 244.543C101.507 244.634 103.223 244.715 104.931 244.806C104.886 245.251 104.84 245.687 104.795 246.132C103.105 245.842 101.416 245.542 99.7268 245.251C99.745 245.015 99.7722 244.779 99.7904 244.552L99.7995 244.543Z" fill="white"/>
<path d="M37.8039 180.776C36.605 180.576 35.4152 180.386 34.2164 180.186C34.3163 179.786 34.4071 179.396 34.507 178.996C35.6514 179.323 36.7867 179.659 37.931 179.986C37.8856 180.249 37.8402 180.513 37.8039 180.776Z" fill="white"/>
<path d="M25.0615 187.125C26.2059 187.47 27.3412 187.815 28.4855 188.16C28.4401 188.433 28.3856 188.705 28.3402 188.978C27.1504 188.832 25.9697 188.687 24.78 188.551C24.8708 188.078 24.9616 187.597 25.0615 187.125Z" fill="white"/>
<path d="M89.4547 247.504C88.2377 247.667 87.0207 247.831 85.8127 248.003C85.7492 247.622 85.6947 247.24 85.6311 246.85C86.8572 246.704 88.0742 246.568 89.3003 246.423C89.3548 246.786 89.4093 247.14 89.4638 247.504H89.4547Z" fill="white"/>
<path d="M25.3521 190.848H22.4095C22.4095 190.558 22.4095 190.258 22.4095 189.967C23.3904 190.022 24.3713 190.076 25.3521 190.14C25.3521 190.376 25.3521 190.612 25.3521 190.858V190.848Z" fill="white"/>
<path d="M134.902 169.614C134.176 168.715 133.422 167.843 132.741 166.908C132.477 166.553 132.396 166.063 132.078 165.218C134.984 165.7 134.476 167.979 134.902 169.623V169.614Z" fill="white"/>
<path d="M85.7402 46.7401C85.0227 46.1861 83.2516 45.4413 82.6703 44.1607C82.1981 43.1163 82.6703 40.9002 83.5422 40.1282C85.2497 38.6206 87.4204 37.1674 89.591 36.7859C92.7517 36.2228 94.55 39.3471 93.0877 42.199C91.7344 44.8237 89.6183 46.3677 85.7402 46.7492V46.7401Z" fill="white"/>
<path d="M120.026 23.0717C122.859 22.1272 125.72 21.8002 128.972 22.9264C126.193 25.0153 125.557 25.0335 120.026 23.0717Z" fill="white"/>
<path d="M111.071 8.63094C112.602 10.623 112.221 13.3325 109.926 16.7596C110.417 13.2811 110.744 10.956 111.071 8.63094Z" fill="white"/>
<path d="M95.1039 38.7205C94.6498 37.0403 94.1957 35.351 93.6962 33.5073C98.2191 34.3701 98.2827 34.5427 95.1039 38.7205Z" fill="white"/>
<path d="M82.6521 50.7908C82.4432 50.0824 82.2343 49.3649 82.0254 48.6565C82.2434 48.5929 82.4704 48.5293 82.6884 48.4657C82.861 49.1923 83.0335 49.9189 83.2152 50.6364C83.0244 50.6818 82.8337 50.7363 82.6521 50.7817V50.7908Z" fill="white"/>
</svg>
