<svg width="48" height="56" viewBox="0 0 48 56" fill="none" xmlns="http://www.w3.org/2000/svg">
<path d="M32.2838 0C32.5738 6.5 31.0738 12.65 29.8238 18.85C28.3538 26.16 28.4238 26.14 35.0138 29.35C38.5938 31.1 42.1238 32.95 45.6538 34.81C47.0138 35.53 48.1238 36.57 47.3638 38.28C46.6638 39.85 45.1738 40.19 43.6738 39.81C42.2938 39.45 40.9838 38.78 39.6638 38.2C36.6938 36.87 33.7738 35.39 30.7538 34.18C27.8838 33.03 27.5638 33.23 27.4238 36.17C27.2438 39.97 27.2938 43.78 27.2238 47.59C27.2038 48.86 27.2538 50.15 27.0038 51.38C26.4538 54.16 24.6838 55.7 22.6338 55.22C20.1838 54.64 19.7338 52.74 19.9338 50.58C20.3738 45.89 20.8538 41.2 21.3438 36.51C21.4338 35.61 21.5338 34.69 21.7738 33.83C22.5438 31.07 21.3038 29.58 18.9638 28.2C13.6638 25.06 8.08379 22.32 3.44379 18.2C1.93379 16.86 -1.07621 15.49 0.393794 13.17C1.98379 10.66 4.27379 13.17 6.01379 14.03C11.2138 16.59 16.3538 19.29 21.4238 22.09C23.7138 23.36 24.6038 22.63 25.2438 20.37C26.5838 15.66 28.1038 11.01 29.4938 6.32C30.1538 4.11 30.5038 1.79 32.2838 0.0200043V0Z" fill="black"/>
</svg>
